1 10 20
100 200 125
201 210 89
900 1000 174
11 20 21
21 30 112
31 40 107
41 50 110
51 60 113
61 70 108
71 80 116
81 90 111
91 100 119
101 110 114
111 120 70
121 130 122
131 140 91
141 150 117
151 160 86
161 170 112
171 180 125
181 190 107
191 200 120
201 210 89
211 220 115
221 230 115
231 240 128
241 250 110
251 260 123
261 270 123
1 15 20
304 18 128
481 138 144
138 12 122
1293 13 182
183 599 144
248 492 144
194 258 128
2854 924 209
148 582 144
1498 283 182
6983 249 262
29 258 128
184 248 128
248 850 171
6092 100 238
829 189 171
148 148 24
492 958 179
285 295 118
258 258 123
532 58 144
29 2 112
1 1 1
2 2 2
3 3 8
98 2 119
88 25 116
99 99 26
43 57 113
90 47 116
792 2 171
48290 1 324
1324 542 182
5235 535 238
657 57 145
358 539 142
9430 583 262
3680 4583 238
358 395 121
998 35 179
3259 2 217
53560 35 340
98 3958 238
354 5803 238
935 3589 217
358 3598 217
698 5938 238
3958 3508 238
38 38 22
358 359 51
1 2 2
3 4 8
5 6 9
7 8 17
93 59 116
384 358 108
298 59 128
3848 3848 52
895 3 179
88 285 128
3598 30598 308
85 35806 324
3508 35085 311
1000 1001 143
1002 2000 182
2001 3000 217
3001 4000 238
4001 5000 215
1599 4585 238
38 358 144
3850 8350 262
32967 239 308
89 358 144
358 306 144
338 5990 238
