1 10 20
100 200 125
201 210 89
900 1000 174
1000 1050 156
1050 1100 169
1100 1150 151
1150 1200 182
1200 1250 177
1250 1300 177
1300 1350 177
1350 1400 159
1400 1450 172
1450 1500 172
1500 1550 154
1550 1600 167
1600 1650 167
1650 1700 180
1700 1750 180
1750 1800 149
1800 1850 162
1850 1900 175
1900 1950 175
1950 2000 175
2000 2050 157
2050 2100 157
2100 2150 170
2150 2200 170
2200 2250 183
2250 2300 152
2300 2350 183
2350 2400 165
2400 2450 165
2450 2500 209
2500 2550 178
2550 2600 178
2600 2650 191
2650 2700 160
2700 2750 160
2750 2800 173
2800 2850 173
2850 2900 173
2900 2950 217
2950 3000 142
3000 3050 155
3050 3100 186
3100 3150 155
3150 3200 199
3200 3250 168
3250 3300 137
3300 3350 181
3350 3400 181
3400 3450 150
3450 3500 181
3500 3550 150
3550 3600 194
3600 3650 163
3650 3700 207
3700 3750 238
3750 3800 176
3800 3850 176
3850 3900 145
3900 3950 189
3950 4000 189
4000 4050 189
4050 4100 158
4100 4150 189
4150 4200 158
4200 4250 202
4250 4300 202
4300 4350 184
4350 4400 215
4400 4450 184
4450 4500 184
4500 4550 184
4550 4600 184
4600 4650 184
4650 4700 153
4700 4750 166
4750 4800 197
4800 4850 166
4850 4900 179
4900 4950 210
4950 5000 179
5000 5050 179
5050 5100 179
5100 5150 179
5150 5200 179
5200 5250 179
5250 5300 192
5300 5350 161
5350 5400 192
5400 5450 161
5450 5500 192
5500 5550 205
5550 5600 236
5600 5650 174
5650 5700 205
5700 5750 174
5750 5800 205
5800 5850 218
5850 5900 174
5900 5950 187
