.......................
----------------------------------------------------------------------
Ran 23 tests in 1.326s

OK
Name             Stmts   Miss Branch BrPart  Cover   Missing
------------------------------------------------------------
Collatz.py          59      0     32      0   100%
TestCollatz.py      88      0      0      0   100%
------------------------------------------------------------
TOTAL              147      0     32      0   100%
